%YAML 1.1
%TAG !u! tag:unity3d.com,2011:
--- !u!1 &1805439581720173732
GameObject:
  m_ObjectHideFlags: 0
  m_CorrespondingSourceObject: {fileID: 0}
  m_PrefabInstance: {fileID: 0}
  m_PrefabAsset: {fileID: 0}
  serializedVersion: 6
  m_Component:
  - component: {fileID: 1805439581720173735}
  - component: {fileID: 410968060768489909}
  m_Layer: 0
  m_Name: Bootstrapper
  m_TagString: Untagged
  m_Icon: {fileID: 0}
  m_NavMeshLayer: 0
  m_StaticEditorFlags: 0
  m_IsActive: 1
--- !u!4 &1805439581720173735
Transform:
  m_ObjectHideFlags: 0
  m_CorrespondingSourceObject: {fileID: 0}
  m_PrefabInstance: {fileID: 0}
  m_PrefabAsset: {fileID: 0}
  m_GameObject: {fileID: 1805439581720173732}
  m_LocalRotation: {x: 0, y: 0, z: 0, w: 1}
  m_LocalPosition: {x: 0, y: 0, z: 0}
  m_LocalScale: {x: 1, y: 1, z: 1}
  m_ConstrainProportionsScale: 0
  m_Children: []
  m_Father: {fileID: 0}
  m_RootOrder: 0
  m_LocalEulerAnglesHint: {x: 0, y: 0, z: 0}
--- !u!114 &410968060768489909
MonoBehaviour:
  m_ObjectHideFlags: 0
  m_CorrespondingSourceObject: {fileID: 0}
  m_PrefabInstance: {fileID: 0}
  m_PrefabAsset: {fileID: 0}
  m_GameObject: {fileID: 1805439581720173732}
  m_Enabled: 1
  m_EditorHideFlags: 0
  m_Script: {fileID: 11500000, guid: d90d9bcc39c81204d95072c48689e591, type: 3}
  m_Name: 
  m_EditorClassIdentifier: 
  firePointTransform: {fileID: 0}
  playerEnergySO: {fileID: 11400000, guid: 2a99342c010ee604f814848b9c4ad5f8, type: 2}
  playerAmmoSO: {fileID: 11400000, guid: 05a512cb8c1190d4bbf3c405f785a2d1, type: 2}
  scoreUIView: {fileID: 0}
  energyUIView: {fileID: 0}
  menu: {fileID: 0}
  platesParentTransform: {fileID: 0}
  obstaclesParentTransform: {fileID: 0}
  pathsSO: {fileID: 11400000, guid: fb48e5e1066190e4a997140e395d6d6f, type: 2}
  bestScoreSO: {fileID: 11400000, guid: 69b9d1387ec9127429312e67d8956102, type: 2}
