%YAML 1.1
%TAG !u! tag:unity3d.com,2011:
--- !u!114 &11400000
MonoBehaviour:
  m_ObjectHideFlags: 0
  m_CorrespondingSourceObject: {fileID: 0}
  m_PrefabInstance: {fileID: 0}
  m_PrefabAsset: {fileID: 0}
  m_GameObject: {fileID: 0}
  m_Enabled: 1
  m_EditorHideFlags: 0
  m_Script: {fileID: 11500000, guid: e2fdc011f22340ed85a563868a6f970e, type: 3}
  m_Name: NewLevel 1
  m_EditorClassIdentifier: 
  keys:
  - {fileID: 11400000, guid: d1683c89d95461649906dd915209a2fb, type: 2}
  - {fileID: 11400000, guid: f8fecfbb224aca54090612b953b31e59, type: 2}
  values: 0400000006000000
  <ObstaclesRotationSpeed>k__BackingField: 2
  <Obstacles>k__BackingField:
  - {fileID: 11400000, guid: 544b3b2274b49fb44bd7d259d69c3a51, type: 2}
