%YAML 1.1
%TAG !u! tag:unity3d.com,2011:
--- !u!1001 &3725821251395818253
PrefabInstance:
  m_ObjectHideFlags: 0
  serializedVersion: 2
  m_Modification:
    m_TransformParent: {fileID: 0}
    m_Modifications:
    - target: {fileID: 6449645875610156945, guid: 33db4fa6449fac0478d60b971d8b1b30, type: 3}
      propertyPath: m_RootOrder
      value: 0
      objectReference: {fileID: 0}
    - target: {fileID: 6449645875610156945, guid: 33db4fa6449fac0478d60b971d8b1b30, type: 3}
      propertyPath: m_LocalPosition.x
      value: 0
      objectReference: {fileID: 0}
    - target: {fileID: 6449645875610156945, guid: 33db4fa6449fac0478d60b971d8b1b30, type: 3}
      propertyPath: m_LocalPosition.y
      value: 0
      objectReference: {fileID: 0}
    - target: {fileID: 6449645875610156945, guid: 33db4fa6449fac0478d60b971d8b1b30, type: 3}
      propertyPath: m_LocalPosition.z
      value: 0
      objectReference: {fileID: 0}
    - target: {fileID: 6449645875610156945, guid: 33db4fa6449fac0478d60b971d8b1b30, type: 3}
      propertyPath: m_LocalRotation.w
      value: 0.98078537
      objectReference: {fileID: 0}
    - target: {fileID: 6449645875610156945, guid: 33db4fa6449fac0478d60b971d8b1b30, type: 3}
      propertyPath: m_LocalRotation.x
      value: 0
      objectReference: {fileID: 0}
    - target: {fileID: 6449645875610156945, guid: 33db4fa6449fac0478d60b971d8b1b30, type: 3}
      propertyPath: m_LocalRotation.y
      value: 0.19509031
      objectReference: {fileID: 0}
    - target: {fileID: 6449645875610156945, guid: 33db4fa6449fac0478d60b971d8b1b30, type: 3}
      propertyPath: m_LocalRotation.z
      value: 0
      objectReference: {fileID: 0}
    - target: {fileID: 6449645875610156945, guid: 33db4fa6449fac0478d60b971d8b1b30, type: 3}
      propertyPath: m_LocalEulerAnglesHint.x
      value: 0
      objectReference: {fileID: 0}
    - target: {fileID: 6449645875610156945, guid: 33db4fa6449fac0478d60b971d8b1b30, type: 3}
      propertyPath: m_LocalEulerAnglesHint.y
      value: 22.5
      objectReference: {fileID: 0}
    - target: {fileID: 6449645875610156945, guid: 33db4fa6449fac0478d60b971d8b1b30, type: 3}
      propertyPath: m_LocalEulerAnglesHint.z
      value: 0
      objectReference: {fileID: 0}
    - target: {fileID: 6449645875610156957, guid: 33db4fa6449fac0478d60b971d8b1b30, type: 3}
      propertyPath: m_Name
      value: Plate1
      objectReference: {fileID: 0}
    m_RemovedComponents: []
  m_SourcePrefab: {fileID: 100100000, guid: 33db4fa6449fac0478d60b971d8b1b30, type: 3}
